/* XPM */
static char *gnome_package_xpm[] = {
/* columns rows colors chars-per-pixel */
"48 48 496 2",
"   c Gray0",
".  c #010100000000",
"X  c #010101010000",
"o  c #010101010101",
"O  c #010102020101",
"+  c #020201010101",
"@  c #020202020202",
"#  c #030302020202",
"$  c #030303030202",
"%  c #030304040303",
"&  c #040403030303",
"*  c #040404040303",
"=  c #050504040303",
"-  c #050505050303",
";  c #040404040404",
":  c Gray2",
">  c #060605050404",
",  c #060606060505",
"<  c #070707070505",
"1  c #060607070606",
"2  c #060607070707",
"3  c #070707070606",
"4  c #070708080505",
"5  c #090908080606",
"6  c #0a0a09090707",
"7  c #0b0b0a0a0707",
"8  c #080809090909",
"9  c #090909090909",
"0  c #09090a0a0909",
"q  c #0b0b0a0a0808",
"w  c #0b0b0b0b0b0b",
"e  c #0d0d0b0b0909",
"r  c #0d0d0b0b0a0a",
"t  c #0d0d0c0c0a0a",
"y  c Gray5",
"u  c #0d0d0e0e0d0d",
"i  c #0e0e0e0e0e0e",
"p  c #0f0f10100f0f",
"a  c #121210100d0d",
"s  c #111112121111",
"d  c #141414141313",
"f  c #171714141111",
"g  c #171715151111",
"h  c #141415151414",
"j  c Gray9",
"k  c #191917171111",
"l  c #181816161212",
"z  c #1b1b18181414",
"x  c #1a1a1a1a1717",
"c  c #1b1b1d1d1414",
"v  c #1c1c19191414",
"b  c #1c1c1b1b1515",
"n  c #1d1d1a1a1515",
"m  c #1d1d1b1b1616",
"M  c #1d1d1c1c1515",
"N  c #1e1e1c1c1717",
"B  c #1f1f1c1c1717",
"V  c #1b1b1b1b1b1b",
"C  c #1e1e1d1d1919",
"Z  c #1c1c1d1d1c1c",
"A  c #1f1f20201f1f",
"S  c #20201d1d1616",
"D  c #20201d1d1717",
"F  c #20201c1c1818",
"G  c #20201d1d1818",
"H  c #21211e1e1818",
"J  c #20201f1f1b1b",
"K  c #23231f1f1919",
"L  c #232320201a1a",
"P  c #242421211a1a",
"I  c #252521211b1b",
"U  c #252523231b1b",
"Y  c #262622221c1c",
"T  c #272723231d1d",
"R  c #252524241f1f",
"E  c #272725251d1d",
"W  c #26262f2f1b1b",
"Q  c #282825251c1c",
"!  c #292925251c1c",
"~  c #2b2b27271f1f",
"^  c #2b2b28281f1f",
"/  c #2d2d2a2a1f1f",
"(  c #222223232222",
")  c #252525252121",
"_  c #252526262525",
"`  c #262629292222",
"'  c #292927272525",
"]  c #2b2b25252626",
"[  c #2f2f20202020",
"{  c #2c2c27272020",
"}  c #2b2b29292020",
"|  c #2a2a2a2a2525",
" . c #2b2b2a2a2424",
".. c #2d2d2a2a2020",
"X. c #2d2d2b2b2222",
"o. c #2e2e2a2a2121",
"O. c #2e2e2b2b2020",
"+. c #2f2f2c2c2525",
"@. c #29292a2a2929",
"#. c #29292d2d2a2a",
"$. c #2e2e2e2e2828",
"%. c #2d2d2d2d2d2d",
"&. c Gray18",
"*. c #2c2c32322828",
"=. c #2c2c30302d2d",
"-. c #30302b2b2424",
";. c #31312d2d2222",
":. c #31312e2e2222",
">. c #30302d2d2424",
",. c #31312c2c2424",
"<. c #32322d2d2525",
"1. c #33332d2d2626",
"2. c #32322f2f2525",
"3. c #33332f2f2525",
"4. c #31312f2f2c2c",
"5. c #3e3e25252626",
"6. c #343430302626",
"7. c #343431312626",
"8. c #353530302727",
"9. c #363630302727",
"0. c #363631312727",
"q. c #353530302828",
"w. c #373731312929",
"e. c #3a3a34342b2b",
"r. c #3a3a36362a2a",
"t. c #3b3b35352c2c",
"y. c #3c3c36362c2c",
"u. c #3c3c36362d2d",
"i. c #3d3d36362d2d",
"p. c #3c3c38382a2a",
"a. c #3e3e39392b2b",
"s. c #3f3f39392f2f",
"d. c #3f3f3a3a2c2c",
"f. c #373737373131",
"g. c #393932323232",
"h. c #3b3b30303030",
"j. c #3a3a37373030",
"k. c #3a3a36363535",
"l. c #393939393232",
"z. c #3b3b39393030",
"x. c #3b3b3b3b3434",
"c. c #3e3e3d3d3636",
"v. c #3a3a3a3a3939",
"b. c #3a3a3c3c3a3a",
"n. c #3a3a3f3f3c3c",
"m. c #3b3b45452a2a",
"M. c #444432323333",
"N. c #444435353535",
"B. c #41413a3a3030",
"V. c #40403b3b3232",
"C. c #42423e3e3131",
"Z. c #43433f3f3636",
"A. c #44443f3f3030",
"S. c #44443c3c3434",
"D. c #46463f3f3434",
"F. c #47473f3f3434",
"G. c #525239393535",
"H. c #616135353939",
"J. c #464640403232",
"K. c #404040403838",
"L. c #414141413939",
"P. c #434343433b3b",
"I. c #434343433f3f",
"U. c #444444443c3c",
"Y. c #454544443c3c",
"T. c #464645453d3d",
"R. c #474747473e3e",
"E. c #484842423131",
"W. c #494941413636",
"Q. c #4a4a43433434",
"!. c #4a4a42423737",
"~. c #4b4b43433737",
"^. c #494944443333",
"/. c #484844443636",
"(. c #4b4b47473737",
"). c #4c4c46463535",
"_. c #4f4f40403e3e",
"`. c #4d4d45453939",
"'. c #4d4d46463838",
"]. c #4e4e47473838",
"[. c #4a4a49493f3f",
"{. c #4f4f48483838",
"}. c #4e4e4a4a3a3a",
"|. c #4e4e48483d3d",
" X c #505048483838",
".X c #505049493838",
"XX c #51514a4a3a3a",
"oX c #52524a4a3f3f",
"OX c #575750503c3c",
"+X c #585852523e3e",
"@X c #545468683d3d",
"#X c #414142424040",
"$X c #404045454242",
"%X c #434344444242",
"&X c #474746464545",
"*X c #444448484040",
"=X c #4a4a48484040",
"-X c #4a4a49494040",
";X c #4b4b49494444",
":X c #4d4d4b4b4141",
">X c #4b4b4c4c4b4b",
",X c #4c4c4c4c4b4b",
"<X c #4c4c4e4e4c4c",
"1X c #50504e4e4343",
"2X c #50504e4e4747",
"3X c #54544c4c4040",
"4X c #55554f4f4343",
"5X c #5a5a44444242",
"6X c #58584f4f4141",
"7X c #555550504040",
"8X c #505050504f4f",
"9X c #575753534848",
"0X c #545452524c4c",
"qX c #55555c5c4c4c",
"wX c #585853534242",
"eX c #5b5b52524444",
"rX c #5b5b54544747",
"tX c #5d5d51514646",
"yX c #5c5c53534444",
"uX c #5d5d56564141",
"iX c #5c5c57574545",
"pX c #5f5f55554646",
"aX c #585854544848",
"sX c #5f5f5a5a4d4d",
"dX c #535354545050",
"fX c #555558585353",
"gX c #54545b5b5656",
"hX c #565658585656",
"jX c #585858585454",
"kX c #5d5d5b5b5252",
"lX c #58585f5f5a5a",
"zX c #5d5d5e5e5a5a",
"xX c #5d5d5e5e5b5b",
"cX c #5c5c5e5e5c5c",
"vX c #5c5c5f5f5c5c",
"bX c #5d5d5f5f5d5d",
"nX c #595960605b5b",
"mX c #606059594444",
"MX c #62625a5a4545",
"NX c #63635c5c4646",
"BX c #61615b5b4848",
"VX c #60605b5b4d4d",
"CX c #63635e5e4a4a",
"ZX c #64645e5e4949",
"AX c #67675f5f4949",
"SX c #67675d5d4d4d",
"DX c #68685e5e4d4d",
"FX c #6a6a5f5f4f4f",
"GX c #65655f5f5151",
"HX c #7b7b59595353",
"JX c #676760604848",
"KX c #676762624d4d",
"LX c #6e6e66664d4d",
"PX c #6f6f66664e4e",
"IX c #6a6a61615151",
"UX c #6c6c61615050",
"YX c #6e6e62625151",
"TX c #6e6e63635252",
"RX c #6f6f63635252",
"EX c #6e6e64645353",
"WX c #6f6f69695353",
"QX c #707068684f4f",
"!X c #717166665454",
"~X c #727269695050",
"^X c #737368685252",
"/X c #70706a6a5454",
"(X c #747469695151",
")X c #75756b6b5252",
"_X c #757569695757",
"`X c #77776e6e5353",
"'X c #76766a6a5858",
"]X c #77776a6a5858",
"[X c #77776b6b5858",
"{X c #77776b6b5959",
"}X c #7a7a6d6d5a5a",
"|X c #7b7b6e6e5b5b",
" o c #7b7b74745c5c",
".o c #7e7e73735959",
"Xo c #7c7c70705c5c",
"oo c #7f7f72725e5e",
"Oo c #7f7f76765959",
"+o c #7e7e77775e5e",
"@o c #606062626060",
"#o c #656566666363",
"$o c #62626a6a6565",
"%o c #666668686666",
"&o c #676769696666",
"*o c #65656d6d6868",
"=o c #67676f6f6969",
"-o c #6a6a6b6b6767",
";o c #686869696868",
":o c #6e6e6f6f6e6e",
">o c #6a6a74746060",
",o c #686871716b6b",
"<o c #6e6e70706e6e",
"1o c #6c6c75756f6f",
"2o c #7c7c72726060",
"3o c #7e7e74746161",
"4o c #7f7f74746161",
"5o c #727274747272",
"6o c #71717b7b7575",
"7o c #72727c7c7676",
"8o c #76767a7a7676",
"9o c #74747d7d7777",
"0o c #7c7c7e7e7c7c",
"qo c #6a6a80804f4f",
"wo c #7e7e80807e7e",
"eo c #7f7f81817f7f",
"ro c #9a9a1d1d4444",
"to c #9b9b20204747",
"yo c #96963e3e4e4e",
"uo c #a1a127274949",
"io c #a4a42a2a4c4c",
"po c #a3a330305151",
"ao c #a5a534345454",
"so c #a6a637375858",
"do c #a6a63a3a5959",
"fo c #a9a932325151",
"go c #acac39395555",
"ho c #adad3b3b5757",
"jo c #a9a939395959",
"ko c #aaaa3d3d5b5b",
"lo c #868647474e4e",
"zo c #909050505555",
"xo c #818173735f5f",
"co c #838379795c5c",
"vo c #84847b7b5d5d",
"bo c #86867b7b5e5e",
"no c #85857c7c5f5f",
"mo c #808066666262",
"Mo c #828275756161",
"No c #808079796060",
"Bo c #868678786464",
"Vo c #868679796464",
"Co c #85857d7d6363",
"Zo c #88887a7a6565",
"Ao c #89897a7a6565",
"So c #8a8a7f7f6161",
"Do c #89897c7c6767",
"Fo c #8a8a7c7c6666",
"Go c #8b8b7d7d6767",
"Ho c #89897c7c6868",
"Jo c #8a8a7d7d6868",
"Ko c #8d8d7f7f6a6a",
"Lo c #999962626464",
"Po c #9f9f6d6d6868",
"Io c #a6a642425555",
"Uo c #aaaa44445959",
"Yo c #b2b24a4a5f5f",
"To c #b2b247476060",
"Ro c #b6b659597373",
"Eo c #c0c06a6a7f7f",
"Wo c #c4c475758787",
"Qo c #c6c67d7d9090",
"!o c #898982826767",
"~o c #8e8e86866a6a",
"^o c #909085856464",
"/o c #909086866565",
"(o c #919187876666",
")o c #909081816b6b",
"_o c #919183836d6d",
"`o c #929283836d6d",
"'o c #919184846a6a",
"]o c #939384846d6d",
"[o c #929284846e6e",
"{o c #939385856e6e",
"}o c #949484846e6e",
"|o c #949485856e6e",
" O c #949486866f6f",
".O c #959586866f6f",
"XO c #949489896767",
"oO c #909088886c6c",
"OO c #92928a8a6c6c",
"+O c #949489896868",
"@O c #959589896868",
"#O c #95958a8a6868",
"$O c #99998d8d6b6b",
"%O c #99998d8d6d6d",
"&O c #989889897171",
"*O c #9a9a8a8a7272",
"=O c #9a9a8a8a7373",
"-O c #9a9a8b8b7373",
";O c #9b9b8b8b7373",
":O c #9c9c8c8c7474",
">O c #9f9f8f8f7575",
",O c #9c9c90906d6d",
"<O c #9f9f93936f6f",
"1O c #999990907171",
"2O c #9b9b91917272",
"3O c #9c9c92927272",
"4O c #9c9c93937272",
"5O c #9d9d93937272",
"6O c #9d9d94947474",
"7O c #8d8dacac6767",
"8O c #9090afaf6969",
"9O c #9191b0b06a6a",
"0O c #9898b3b37676",
"qO c #9d9db9b97878",
"wO c #9e9eb9b97a7a",
"eO c #a0a090907676",
"rO c #a1a191917676",
"tO c #a1a191917777",
"yO c #a2a295957272",
"uO c #a2a296967171",
"iO c #a5a598987373",
"pO c #a4a49a9a7777",
"aO c #a6a698987676",
"sO c #a8a89c9c7575",
"dO c #a9a99d9d7676",
"fO c #b0b0a2a27b7b",
"gO c #b1b1a4a47c7c",
"hO c #b0b0a4a47e7e",
"jO c #b1b1a5a57f7f",
"kO c #b3b3a6a67d7d",
"lO c #b4b4a6a67d7d",
"zO c #b6b6a9a97f7f",
"xO c #828286868282",
"cO c #848486868484",
"vO c #87878a8a8787",
"bO c #84848f8f8888",
"nO c #929295959292",
"mO c #9a9a9b9b9494",
"MO c #98989b9b9898",
"NO c #9d9d9f9f9d9d",
"BO c #9494a0a09898",
"VO c #9e9ea0a09e9e",
"CO c #b2b295959b9b",
"ZO c #a5a5bfbf8686",
"AO c #a5a5bcbc8a8a",
"SO c #aeaebaba9d9d",
"DO c #b2b2a5a58080",
"FO c #b9b9abab8181",
"GO c #babaacac8282",
"HO c #bbbbadad8282",
"JO c #bbbbadad8585",
"KO c #bebeb0b08484",
"LO c #bfbfb0b08585",
"PO c #bfbfb1b18686",
"IO c #a4a4a7a7a4a4",
"UO c #acacafafacac",
"YO c #afafb2b2afaf",
"TO c #b2b2b6b6b2b2",
"RO c #b5b5b8b8b5b5",
"EO c #b9b9bbbbb9b9",
"WO c #bcbcbfbfbcbc",
"QO c #bebec1c1bdbd",
"!O c #bebec2c2bebe",
"~O c #c9c98c8c9c9c",
"^O c #d4d49b9b9e9e",
"/O c #cece9292a3a3",
"(O c #cdcd9494a5a5",
")O c #d0d09696a7a7",
"_O c #d3d39e9eacac",
"`O c #c0c0b2b28888",
"'O c #c2c2b2b28989",
"]O c #c2c2b4b48989",
"[O c #c4c4b5b58888",
"{O c #c4c4b5b58a8a",
"}O c #c5c5b6b68a8a",
"|O c #c5c5b7b78b8b",
" + c #c6c6b7b78a8a",
".+ c #c7c7b8b88b8b",
"X+ c #c9c9b9b98c8c",
"o+ c #cacababa8d8d",
"O+ c #cacabbbb8d8d",
"++ c #ccccbdbd8f8f",
"@+ c #cdcdbdbd8e8e",
"#+ c #cdcdbdbd8f8f",
"$+ c #cecebfbf9191",
"%+ c #cfcfbfbf9090",
"&+ c #c7c7a6a6acac",
"*+ c #d5d5aaaab0b0",
"=+ c #dadab1b1b5b5",
"-+ c #dedeb8b8bdbd",
";+ c #e1e1b9b9c0c0",
":+ c #d1d1c1c19292",
">+ c #d2d2c2c29292",
",+ c #d3d3c3c39393",
"<+ c #d4d4c4c49494",
"1+ c #c0c0d1d1abab",
"2+ c #c1c1d3d3abab",
"3+ c #c7c7d7d7b3b3",
"4+ c #d1d1d8d8bfbf",
"5+ c #c1c1c4c4c1c1",
"6+ c #c1c1c5c5c1c1",
"7+ c #c4c4c8c8c4c4",
"8+ c #c7c7cbcbc7c7",
"9+ c #cecec2c2c5c5",
"0+ c #c8c8ccccc8c8",
"q+ c #dadac4c4c6c6",
"w+ c #dadac9c9caca",
"e+ c #d6d6dfdfcbcb",
"r+ c #d8d8dcdcd8d8",
"t+ c #d9d9e0e0cccc",
"y+ c #d9d9e1e1cece",
"u+ c None",
/* pixels */
"u+u+u+u+u+u+u+u+u+u+u+u+u+u+u+u+u+u+u+u+u+u+u+u+u+u+u+u+u+u+u+u+u+u+u+u+u+u+u+u+u+u+u+u+u+u+u+u+",
"u+u+u+u+u+u+u+u+u+u+u+u+u+u+u+u+u+u+u+u+u+u+u+u+u+u+u+u+u+u+u+u+u+u+u+u+u+u+u+u+u+u+u+u+u+u+u+u+",
"u+u+u+u+u+u+u+u+u+u+u+u+u+u+u+u+u+u+u+u+u+u+u+u+u+u+u+u+u+u+u+u+u+u+u+u+u+u+u+u+u+u+u+u+u+u+u+u+",
"u+u+u+u+u+u+u+u+u+u+u+u+u+u+u+u+u+u+u+u+u+u+u+u+u+u+u+u+u+u+u+u+u+u+u+u+u+u+u+u+u+u+u+u+u+u+u+u+",
"u+u+u+u+u+u+u+u+u+u+u+u+u+u+u+u+u+u+u+u+u+u+u+u+u+u+u+u+u+u+u+u+u+u+u+u+u+u+u+u+u+u+u+u+u+u+u+u+",
"u+u+u+u+u+u+u+u+u+u+u+u+u+u+u+u+u+u+u+u+u+u+u+u+u+u+u+u+u+u+u+u+u+u+u+u+u+u+u+u+u+u+u+u+u+u+u+u+",
"u+u+u+u+u+u+u+u+u+u+u+u+u+u+u+u+u+u+u+u+u+u+u+u+u+u+u+u+u+u+u+u+u+u+u+u+u+u+u+u+u+u+u+u+u+u+u+u+",
"u+u+u+u+u+u+u+u+u+u+u+u+u+u+u+u+u+u+u+u+u+u+u+u+u+u+u+u+u+u+u+u+u+u+u+u+u+u+u+u+u+u+u+u+u+u+u+u+",
"u+u+u+u+u+u+u+u+u+u+u+u+u+u+u+u+        u+u+u+u+u+u+u+u+u+u+u+u+u+u+u+u+u+u+u+u+u+u+u+u+u+u+u+u+",
"u+u+u+u+u+u+u+u+u+u+u+u+u+u+u+  X *X#X  u+u+u+u+u+u+u+u+u+u+u+u+u+u+u+u+u+u+u+u+u+u+u+u+u+u+u+u+",
"u+u+u+u+u+u+u+u+u+u+u+u+u+u+    ` e+t+i           u+u+u+u+u+u+u+u+u+u+u+u+u+u+u+u+u+u+u+u+u+u+u+",
"u+u+u+u+u+u+u+u+u+u+u+u+u+u+    @.y+4+SOo o 9o$X  u+u+        u+u+u+u+u+u+u+u+u+u+u+u+u+u+u+u+u+",
"u+u+u+u+u+u+u+u+u+u+u+u+u+u+u+    >o1+3+qX  $oBO=.  u+1 1o7o  u+u+u+u+u+u+u+u+u+u+u+u+u+u+u+u+u+",
"u+u+u+u+u+u+u+u+u+u+u+u+u+u+      , AO2+0O  o BOlX    =oBOBO#.  u+      u+u+u+u+u+u+u+u+u+u+u+u+",
"u+u+u+u+u+u+u+u+u+u+u+u+u+  nX@     *.ZOwO@X  2 ,o      o ; *o            u+u+u+u+u+u+u+u+u+u+u+",
"u+u+u+u+u+u+u+u+u+u+u+u+  gXs         qoqO8O4         _ w Z       bOBO6o  u+u+u+u+u+u+u+u+u+u+u+",
"u+u+u+u+u+u+u+u+u+u+u+u+9 n.  [ 5.    O 9O7OW   y MONOTOYOUO<oV   8 BOBOu   u+u+u+u+u+u+u+u+u+u+",
"u+u+u+u+u+u+u+u+u+u+u+u+p   h.;+-+y     c m.% d QORO0+r+8+ROcOeo&.  0 BOh   u+u+u+u+u+u+u+u+u+u+",
"u+u+u+u+u+u+u+          + ] &+(O~O9+k.6 S.1.' mO5+7+r+r+r+EO<o%obXj @ S       u+u+u+u+u+u+u+u+u+",
"u+u+u+u+u+          a F 4.CO/Otoso_Ow+g.r &XvX:oYOr+r+r+6+nO5o@o>XdX  co~ 6     u+u+u+u+u+u+u+u+",
"u+u+u+u+      8.yOMX^XtXM.Worodojoko)Oq+_.( <X%X0oWO!OIOwo#o&o,Xv.zXN E.,.Aoe.    u+u+u+u+u+u+u+",
"u+u+u+      f So<+<+X+9.z loYofohouoaoQo*+N.A b.fX8oVOvOhXcXkXI.: K 'o>O:O:O[X*       u+u+u+u+u+",
"u+u+    u+  ].<+<+<+<+<+HOPXG.zoIogoiopoRo=+5X%.<X;oxOxX-o0XJ.|X=O:O:O:O:O:O*OD.{   u+u+u+u+u+u+",
"u+u+  u+  g 'O<+<+<+<+<+<+<+.+,O XH.yoUoToEo^O;X8XjX2XoX)o;O:O:O:O:O:O:O:O:O*O'X!.w.u+u+u+  u+u+",
"  u+u+  t aO,+<+<+<+<+<+<+<+<+<+:+fO(XHXPoLomo`.yX]X&O:O:O:O:O:O:O:O:O:O:O:O:O}opXW.u+u+u+u+  u+",
"u+u+  @ bo<+,+<+<+<+<+<+<+<+<+<+<+<+<+$OXXB.{X*O:O:O:O:O:O:O:O:O:O:O:O:O:O:O:O=OBoF.  u+  u+u+u+",
"u+    AX<+<+,+<+<+<+<+<+<+<+<+<+<+<+,+XO+X0.!.]o:O:O:O:O:O:O:O:O:O:O:O:O:O:O:O=O:OB.      u+u+u+",
"u+    FO,+,+,+<+<+<+<+<+<+<+<+<+<+,+,+mXvo'.eX`.;O:O:O:O:O:O:O:O:O:O:O:O:O:O=OGoq.g     u+u+u+u+",
"u+    uXgO,+,+<+<+<+<+<+<+<+<+<+<+,+QXwX(o3.DoJ Zo;O:O:O:O:O:O:O:O:O:O:O:OXoI & w.  u+u+u+u+u+u+",
"u+u+u+).uXsO>+<+<+<+<+<+<+<+<+<+,+lO2./XdOJ.[o$.R *O;O:O:O:O:O:O:O:O:O}XD.m  .> u+u+u+u+u+u+u+u+",
"u+u+u+u+  d.OoGO<+<+<+<+<+<+,+,+O+^.BXoOiO^ :OsXx rX;O;O:O:O:O:O*O_Xi.G V.l.K.3 u+u+u+u+u+u+u+u+",
"u+u+u+u+u+  M 6./oo+<+<+<+<+,+<+JX7.+oOO<Op.:OHox.C {o;O;O:O:Ooos.-.z.K.U.U.K., u+u+u+u+u+u+u+u+",
"u+u+u+u+u+u+X.7X}.NXuO#+,+<+<+O+Q BXoO6OfO:.eO:OaX| +.:O;O'X!X~.3X=XU.U.U.U.x.*   u+u+u+u+u+u+u+",
"u+u+u+u+u+u+E iXCoCXr.A.no:+<+LXb !ooOpOkO;.rO:OJoL.) EX*OUXy.Z.P.U.U.U.U.[.IX#   u+u+u+u+u+u+u+",
"u+u+u+u+u+u+5 ZXoOoONo/.E (.POU  ooOoOjOzOa.tO:O:O1XP.j.SX|.c.U.U.U.U.Y.2o:Oxo<   u+u+u+u+u+u+u+",
"u+u+u+u+u+u+  ~X|O2OoOoOWX>.} C.oOoOoO%+LOO.eO:O:O3oU.f.4XL.U.U.U.U.9X O:O:OMo$   u+u+u+u+u+u+u+",
"u+u+u+u+u+u+  7 %O<+]O1OoO~oKXoOoOoO5O<+KOk :O:O:OKoU.U.U.U.U.U.R.4o:O:O:OFoB.    u+u+u+u+u+u+u+",
"u+u+u+u+u+u+u+  = I .o@+`O4OoOoOoOoODO<+}OD :O:O:O:O:XU.U.U.U.GX-O:O:O{X6X<.q   u+u+u+u+u+u+u+u+",
"u+u+u+u+u+u+u+u+u+  ,.B )X:+++3OoOoO{O<+[On :O:O:O:O2oU.U.T.2o:O|oDXY o     u+u+u+u+u+u+u+u+u+u+",
"u+u+u+u+u+u+u+u+u+u+u+    P +O$+JOhO<+<+ +H :O:O:O:O_o-XVXVo}XD.6       u+u+u+u+u+u+u+u+u+u+u+u+",
"u+u+u+u+u+u+u+u+u+u+u+u+u+  . ..@O<+<+<+zOo.:O:O:O:O:OGoTXW.L       u+u+u+u+u+u+u+u+u+u+u+u+u+u+",
"u+u+u+u+u+u+u+u+u+u+u+u+u+u+u+  e {.GO<+GO.X:O:O:O`oRXu.v       u+u+u+u+u+u+u+u+u+u+u+u+u+u+u+u+",
"u+u+u+u+u+u+u+u+u+u+u+u+u+u+u+u+  - ! #O<+`X:O.OYXt.l       u+u+u+u+u+u+u+u+u+u+u+u+u+u+u+u+u+u+",
"u+u+u+u+u+u+u+u+u+u+u+u+u+u+u+u+u+u+/ OX^oQ.FXT g     u+u+u+u+u+u+u+u+u+u+u+u+u+u+u+u+u+u+u+u+u+",
"u+u+u+u+u+u+u+u+u+u+u+u+u+u+u+u+u+u+u+u+        u+u+u+u+u+u+u+u+u+u+u+u+u+u+u+u+u+u+u+u+u+u+u+u+",
"u+u+u+u+u+u+u+u+u+u+u+u+u+u+u+u+u+u+u+u+u+    u+u+u+u+u+u+u+u+u+u+u+u+u+u+u+u+u+u+u+u+u+u+u+u+u+",
"u+u+u+u+u+u+u+u+u+u+u+u+u+u+u+u+u+u+u+u+u+u+u+u+u+u+u+u+u+u+u+u+u+u+u+u+u+u+u+u+u+u+u+u+u+u+u+u+",
"u+u+u+u+u+u+u+u+u+u+u+u+u+u+u+u+u+u+u+u+u+u+u+u+u+u+u+u+u+u+u+u+u+u+u+u+u+u+u+u+u+u+u+u+u+u+u+u+"
};
