gnorpm.html          Introduction
main-win.html        The main window
query-win.html       The query window
install-win.html     The install window
find-win.html        The find window
rpmfind-win.html     The web find window
